hubEnsembles • hubEnsembles
…
hubExamples::forecast_outputs |>
  dplyr::filter(
    output_type_id %in% unlist(otid),
    reference_date == "2022-12-17",
    location == "25",
    horizon == 1
  ) |>
  dplyr::arrange(model_id, dplyr::desc(target), output_type) |>
  print(n = 16)
#> # A tibble: 48 × 9
#>    model_id          reference_date target                    horizon location target_end_date output_type output_type_id   value
#>    <chr>             <date>         <chr>                       <int> <chr>    <date>          <chr>       <chr>            <dbl>
#>  1 Flusight-baseline 2022-12-17     wk inc flu hosp                 1 25       2022-12-24      mean        NA             5.82e+2
#>  2 Flusight-baseline 2022-12-17     wk inc flu hosp                 1 25       2022-12-24      median      NA             5.82e+2
#>  3 Flusight-baseline 2022-12-17     wk inc flu hosp                 1 25       2022-12-24      quantile    0.25           5.66e+2
#>  4 Flusight-baseline 2022-12-17     wk inc flu hosp                 1 25       2022-12-24      quantile    0.75           5.98e+2
#>  5 Flusight-baseline 2022-12-17     wk inc flu hosp                 1 25       2022-12-24      sample      2101           6.06e+2
#>  6 Flusight-baseline 2022-12-17     wk inc flu hosp                 1 25       2022-12-24      sample      2102           5.76e+2
#>  7 Flusight-baseline 2022-12-17     wk inc flu hosp                 1 25       2022-12-24      sample      2103           5.78e+2
#>  8 Flusight-baseline 2022-12-17     wk flu hosp rate category       1 25       2022-12-24      pmf         low            9.70e-6
#>  9 Flusight-baseline 2022-12-17     wk flu hosp rate category       1 25       2022-12-24      pmf         moderate       2.94e-3
#> 10 Flusight-baseline 2022-12-17     wk flu hosp rate category       1 25       2022-12-24      pmf         high           7.35e-2
#> 11 Flusight-baseline 2022-12-17     wk flu hosp rate category       1 25       2022-12-24      pmf         very high      9.24e-1
#> 12 Flusight-baseline 2022-12-17     wk flu hosp rate                1 25       2022-12-24      cdf         0.25           8.63e-9
#> 13 Flusight-baseline 2022-12-17     wk flu hosp rate                1 25       2022-12-24      cdf         0.75           4.83e-8
#> 14 Flusight-baseline 2022-12-17     wk flu hosp rate                1 25       2022-12-24      cdf         1              1.10e-7
#> 15 Flusight-baseline 2022-12-17     wk flu hosp rate                1 25       2022-12-24      cdf         13             1.00e+0
#> 16 Flusight-baseline 2022-12-17     wk flu hosp rate                1 25       2022-12-24      cdf         15             1.00e+0
#> # ℹ 32 more rows
…
hubExamples::forecast_outputs |>
  dplyr::filter(output_type == "sample") |>
  dplyr::mutate(output_type_id = as.numeric(output_type_id)) |> # make indices numeric for readability
  hubEnsembles::linear_pool(
    weights = NULL,
    model_id = "linear-pool-joint",
    task_id_cols = c("reference_date", "location", "horizon", "target", "target_end_date"),
    compound_taskid_set = c("reference_date", "location", "target"),
    derived_task_ids = "target_end_date",
    n_output_samples = 100
  )
#> # A tibble: 1,600 × 9
#>    model_id          reference_date target          horizon location target_end_date output_type output_type_id value
#>  * <chr>             <date>         <chr>             <int> <chr>    <date>          <chr>                <int> <dbl>
#>  1 linear-pool-joint 2022-11-19     wk inc flu hosp       0 25       2022-11-19      sample                   1     2
#>  2 linear-pool-joint 2022-11-19     wk inc flu hosp       0 25       2022-11-19      sample                   2    47
#>  3 linear-pool-joint 2022-11-19     wk inc flu hosp       0 25       2022-11-19      sample                   3    56
#>  4 linear-pool-joint 2022-11-19     wk inc flu hosp       0 25       2022-11-19      sample                   4    47
#>  5 linear-pool-joint 2022-11-19     wk inc flu hosp       0 25       2022-11-19      sample                   5    64
#>  6 linear-pool-joint 2022-11-19     wk inc flu hosp       0 25       2022-11-19      sample                   6    55
#>  7 linear-pool-joint 2022-11-19     wk inc flu hosp       0 25       2022-11-19      sample                   7    54
#>  8 linear-pool-joint 2022-11-19     wk inc flu hosp       0 25       2022-11-19      sample                   8    56
#>  9 linear-pool-joint 2022-11-19     wk inc flu hosp       0 25       2022-11-19      sample                   9    58
#> 10 linear-pool-joint 2022-11-19     wk inc flu hosp       0 25       2022-11-19      sample                  10    36
#> # ℹ 1,590 more rows
…
